<svg xmlns="http://www.w3.org/2000/svg">
    <polygon points="0,0 100,100 0,100" fill="rgba(139, 195, 74, 1)" id="svg_2"/>
    <line id="svg_1" stroke="rgba(220,220,220,1)" y2="100" x2="100" y1="0" x1="0"/>
</svg>